name="!CGM: Planets Enhanced"
archive="cgm_planets_enhanced.zip"
tags={
	"Balance"
	"Overhaul"
	"Gameplay"
}
picture="cgm_planets_enhanced_thumb.jpg"
remote_file_id="1418548545"
supported_version="2.1.*"
